{
    "key": "group_5bec588dce4ba",
    "title": "Global - Colour",
    "fields": [
        {
            "key": "field_5bec589d4e39d",
            "label": "Colour",
            "name": "colour",
            "type": "select",
            "instructions": "",
            "required": 0,
            "conditional_logic": 0,
            "wrapper": {
                "width": "",
                "class": "",
                "id": ""
            },
            "choices": {
                "primary": "primary",
                "secondary": "secondary",
                "white": "white",
                "dark": "dark",
                "block": "block"
            },
            "default_value": [],
            "allow_null": 1,
            "multiple": 0,
            "ui": 0,
            "return_format": "value",
            "ajax": 0,
            "placeholder": ""
        }
    ],
    "location": [
        [
            {
                "param": "options_page",
                "operator": "==",
                "value": "acf-options-site-clone"
            }
        ]
    ],
    "menu_order": 0,
    "position": "normal",
    "style": "default",
    "label_placement": "top",
    "instruction_placement": "label",
    "hide_on_screen": "",
    "active": 1,
    "description": "",
    "modified": 1553531846
}